tb_nn.vcd
$date
	Wed Jan 21 00:51:00 2026
$end
$version
	Icarus Verilog
$end
$timescale
	1ps
$end
$scope module tb_nn $end
$var wire 3 ! zero_fsm_stage [2:0] $end
$var wire 1 " total_zero $end
$var wire 1 # total_ovf $end
$var wire 3 $ ovf_fsm_stage [2:0] $end
$var wire 32 % final_output [31:0] $end
$var parameter 32 & CLK_PERIOD $end
$var parameter 32 ' SIZE $end
$var reg 1 ( clk $end
$var reg 1 ) enable $end
$var reg 32 * input_1 [31:0] $end
$var reg 32 + input_2 [31:0] $end
$var reg 32 , max_neg [31:0] $end
$var reg 32 - max_pos [31:0] $end
$var reg 32 . ref_output [31:0] $end
$var reg 1 / resetn $end
$var integer 32 0 i [31:0] $end
$var integer 32 1 pass_count [31:0] $end
$var integer 32 2 total_tests [31:0] $end
$scope function nn_model $end
$var reg 32 3 bias1 [31:0] $end
$var reg 32 4 bias2 [31:0] $end
$var reg 32 5 bias3 [31:0] $end
$var reg 32 6 input_1 [31:0] $end
$var reg 32 7 input_2 [31:0] $end
$var reg 32 8 inter1 [31:0] $end
$var reg 32 9 inter2 [31:0] $end
$var reg 64 : mac1 [63:0] $end
$var reg 64 ; mac2 [63:0] $end
$var reg 64 < mac3 [63:0] $end
$var reg 64 = mac4 [63:0] $end
$var reg 64 > mul1 [63:0] $end
$var reg 64 ? mul2 [63:0] $end
$var reg 64 @ mul3 [63:0] $end
$var reg 64 A mul4 [63:0] $end
$var reg 1 B ovf_mac1 $end
$var reg 1 C ovf_mac2 $end
$var reg 1 D ovf_mac3 $end
$var reg 1 E ovf_mac4 $end
$var reg 1 F ovf_mul1 $end
$var reg 1 G ovf_mul2 $end
$var reg 1 H ovf_mul3 $end
$var reg 1 I ovf_mul4 $end
$var reg 1 J ovf_sb $end
$var reg 64 K result [63:0] $end
$var reg 32 L shift_bias1 [31:0] $end
$var reg 32 M shift_bias2 [31:0] $end
$var reg 32 N shift_bias3 [31:0] $end
$var reg 32 O weight1 [31:0] $end
$var reg 32 P weight2 [31:0] $end
$var reg 32 Q weight3 [31:0] $end
$var reg 32 R weight4 [31:0] $end
$var integer 32 S addr [31:0] $end
$upscope $end
$scope module uut $end
$var wire 1 ( clk $end
$var wire 1 ) enable $end
$var wire 32 T input_1 [31:0] $end
$var wire 32 U input_2 [31:0] $end
$var wire 1 / resetn $end
$var wire 32 V rom_d [31:0] $end
$var wire 32 W rf_d4 [31:0] $end
$var wire 32 X rf_d3 [31:0] $end
$var wire 32 Y rf_d2 [31:0] $end
$var wire 32 Z rf_d1 [31:0] $end
$var wire 1 [ m2_zm $end
$var wire 1 \ m2_za $end
$var wire 32 ] m2_res [31:0] $end
$var wire 1 ^ m2_om $end
$var wire 1 _ m2_oa $end
$var wire 1 ` m1_zm $end
$var wire 1 a m1_za $end
$var wire 32 b m1_res [31:0] $end
$var wire 1 c m1_om $end
$var wire 1 d m1_oa $end
$var wire 1 e alu_z2 $end
$var wire 1 f alu_z1 $end
$var wire 1 g alu_ovf2 $end
$var wire 1 h alu_ovf1 $end
$var wire 32 i alu_out2 [31:0] $end
$var wire 32 j alu_out1 [31:0] $end
$var parameter 4 k ALU_OP_ADD $end
$var parameter 4 l ALU_OP_SLL $end
$var parameter 4 m ALU_OP_SRA $end
$var parameter 3 n DEACTIVATED $end
$var parameter 3 o IDLE $end
$var parameter 3 p INPUT_LAYER $end
$var parameter 3 q LOADING $end
$var parameter 3 r NO_ZERO_OR_OVF $end
$var parameter 3 s OUTPUT_LAYER $end
$var parameter 3 t POST_PROC $end
$var parameter 3 u PRE_PROC $end
$var parameter 32 v SIZE $end
$var reg 4 w alu_ctrl [3:0] $end
$var reg 32 x alu_in11 [31:0] $end
$var reg 32 y alu_in12 [31:0] $end
$var reg 32 z alu_in21 [31:0] $end
$var reg 32 { alu_in22 [31:0] $end
$var reg 32 | final_output [31:0] $end
$var reg 32 } inter_1 [31:0] $end
$var reg 32 ~ inter_2 [31:0] $end
$var reg 32 !" inter_3 [31:0] $end
$var reg 32 "" inter_4 [31:0] $end
$var reg 32 #" inter_5 [31:0] $end
$var reg 8 $" load_counter [7:0] $end
$var reg 1 %" loading_done $end
$var reg 32 &" m1_op1 [31:0] $end
$var reg 32 '" m1_op2 [31:0] $end
$var reg 32 (" m1_op3 [31:0] $end
$var reg 32 )" m2_op1 [31:0] $end
$var reg 32 *" m2_op2 [31:0] $end
$var reg 32 +" m2_op3 [31:0] $end
$var reg 3 ," next_state [2:0] $end
$var reg 3 -" ovf_fsm_stage [2:0] $end
$var reg 4 ." rf_r1 [3:0] $end
$var reg 4 /" rf_r2 [3:0] $end
$var reg 4 0" rf_r3 [3:0] $end
$var reg 4 1" rf_r4 [3:0] $end
$var reg 4 2" rf_w [3:0] $end
$var reg 32 3" rf_wd [31:0] $end
$var reg 1 4" rf_we $end
$var reg 3 5" state [2:0] $end
$var reg 1 # total_ovf $end
$var reg 1 " total_zero $end
$var reg 3 6" zero_fsm_stage [2:0] $end
$scope module ALU_UNIT_1 $end
$var wire 4 7" alu_op [3:0] $end
$var wire 32 8" op1 [31:0] $end
$var wire 32 9" op2 [31:0] $end
$var parameter 4 :" ALUOP_ADD $end
$var parameter 4 ;" ALUOP_AND $end
$var parameter 4 <" ALUOP_MUL $end
$var parameter 4 =" ALUOP_NAND $end
$var parameter 4 >" ALUOP_NOR $end
$var parameter 4 ?" ALUOP_OR $end
$var parameter 4 @" ALUOP_SLL $end
$var parameter 4 A" ALUOP_SLLV $end
$var parameter 4 B" ALUOP_SRA $end
$var parameter 4 C" ALUOP_SRL $end
$var parameter 4 D" ALUOP_SUB $end
$var parameter 4 E" ALUOP_XOR $end
$var parameter 32 F" SIZE $end
$var reg 64 G" full_product [63:0] $end
$var reg 1 h ovf $end
$var reg 32 H" result [31:0] $end
$var reg 1 f zero $end
$upscope $end
$scope module ALU_UNIT_2 $end
$var wire 4 I" alu_op [3:0] $end
$var wire 32 J" op1 [31:0] $end
$var wire 32 K" op2 [31:0] $end
$var parameter 4 L" ALUOP_ADD $end
$var parameter 4 M" ALUOP_AND $end
$var parameter 4 N" ALUOP_MUL $end
$var parameter 4 O" ALUOP_NAND $end
$var parameter 4 P" ALUOP_NOR $end
$var parameter 4 Q" ALUOP_OR $end
$var parameter 4 R" ALUOP_SLL $end
$var parameter 4 S" ALUOP_SLLV $end
$var parameter 4 T" ALUOP_SRA $end
$var parameter 4 U" ALUOP_SRL $end
$var parameter 4 V" ALUOP_SUB $end
$var parameter 4 W" ALUOP_XOR $end
$var parameter 32 X" SIZE $end
$var reg 64 Y" full_product [63:0] $end
$var reg 1 g ovf $end
$var reg 32 Z" result [31:0] $end
$var reg 1 e zero $end
$upscope $end
$scope module MAC1 $end
$var wire 32 [" op1 [31:0] $end
$var wire 32 \" op2 [31:0] $end
$var wire 32 ]" op3 [31:0] $end
$var wire 1 ` zero_mul $end
$var wire 1 a zero_add $end
$var wire 32 ^" total_result [31:0] $end
$var wire 1 c ovf_mul $end
$var wire 1 d ovf_add $end
$var wire 32 _" mul_result [31:0] $end
$var parameter 4 `" ALUOP_ADD $end
$var parameter 4 a" ALUOP_MUL $end
$var parameter 32 b" SIZE $end
$scope module alu_add $end
$var wire 4 c" alu_op [3:0] $end
$var wire 32 d" op2 [31:0] $end
$var wire 32 e" op1 [31:0] $end
$var parameter 4 f" ALUOP_ADD $end
$var parameter 4 g" ALUOP_AND $end
$var parameter 4 h" ALUOP_MUL $end
$var parameter 4 i" ALUOP_NAND $end
$var parameter 4 j" ALUOP_NOR $end
$var parameter 4 k" ALUOP_OR $end
$var parameter 4 l" ALUOP_SLL $end
$var parameter 4 m" ALUOP_SLLV $end
$var parameter 4 n" ALUOP_SRA $end
$var parameter 4 o" ALUOP_SRL $end
$var parameter 4 p" ALUOP_SUB $end
$var parameter 4 q" ALUOP_XOR $end
$var parameter 32 r" SIZE $end
$var reg 64 s" full_product [63:0] $end
$var reg 1 d ovf $end
$var reg 32 t" result [31:0] $end
$var reg 1 a zero $end
$upscope $end
$scope module alu_mul $end
$var wire 4 u" alu_op [3:0] $end
$var wire 32 v" op1 [31:0] $end
$var wire 32 w" op2 [31:0] $end
$var parameter 4 x" ALUOP_ADD $end
$var parameter 4 y" ALUOP_AND $end
$var parameter 4 z" ALUOP_MUL $end
$var parameter 4 {" ALUOP_NAND $end
$var parameter 4 |" ALUOP_NOR $end
$var parameter 4 }" ALUOP_OR $end
$var parameter 4 ~" ALUOP_SLL $end
$var parameter 4 !# ALUOP_SLLV $end
$var parameter 4 "# ALUOP_SRA $end
$var parameter 4 ## ALUOP_SRL $end
$var parameter 4 $# ALUOP_SUB $end
$var parameter 4 %# ALUOP_XOR $end
$var parameter 32 &# SIZE $end
$var reg 64 '# full_product [63:0] $end
$var reg 1 c ovf $end
$var reg 32 (# result [31:0] $end
$var reg 1 ` zero $end
$upscope $end
$upscope $end
$scope module MAC2 $end
$var wire 32 )# op1 [31:0] $end
$var wire 32 *# op2 [31:0] $end
$var wire 32 +# op3 [31:0] $end
$var wire 1 [ zero_mul $end
$var wire 1 \ zero_add $end
$var wire 32 ,# total_result [31:0] $end
$var wire 1 ^ ovf_mul $end
$var wire 1 _ ovf_add $end
$var wire 32 -# mul_result [31:0] $end
$var parameter 4 .# ALUOP_ADD $end
$var parameter 4 /# ALUOP_MUL $end
$var parameter 32 0# SIZE $end
$scope module alu_add $end
$var wire 4 1# alu_op [3:0] $end
$var wire 32 2# op2 [31:0] $end
$var wire 32 3# op1 [31:0] $end
$var parameter 4 4# ALUOP_ADD $end
$var parameter 4 5# ALUOP_AND $end
$var parameter 4 6# ALUOP_MUL $end
$var parameter 4 7# ALUOP_NAND $end
$var parameter 4 8# ALUOP_NOR $end
$var parameter 4 9# ALUOP_OR $end
$var parameter 4 :# ALUOP_SLL $end
$var parameter 4 ;# ALUOP_SLLV $end
$var parameter 4 <# ALUOP_SRA $end
$var parameter 4 =# ALUOP_SRL $end
$var parameter 4 ># ALUOP_SUB $end
$var parameter 4 ?# ALUOP_XOR $end
$var parameter 32 @# SIZE $end
$var reg 64 A# full_product [63:0] $end
$var reg 1 _ ovf $end
$var reg 32 B# result [31:0] $end
$var reg 1 \ zero $end
$upscope $end
$scope module alu_mul $end
$var wire 4 C# alu_op [3:0] $end
$var wire 32 D# op1 [31:0] $end
$var wire 32 E# op2 [31:0] $end
$var parameter 4 F# ALUOP_ADD $end
$var parameter 4 G# ALUOP_AND $end
$var parameter 4 H# ALUOP_MUL $end
$var parameter 4 I# ALUOP_NAND $end
$var parameter 4 J# ALUOP_NOR $end
$var parameter 4 K# ALUOP_OR $end
$var parameter 4 L# ALUOP_SLL $end
$var parameter 4 M# ALUOP_SLLV $end
$var parameter 4 N# ALUOP_SRA $end
$var parameter 4 O# ALUOP_SRL $end
$var parameter 4 P# ALUOP_SUB $end
$var parameter 4 Q# ALUOP_XOR $end
$var parameter 32 R# SIZE $end
$var reg 64 S# full_product [63:0] $end
$var reg 1 ^ ovf $end
$var reg 32 T# result [31:0] $end
$var reg 1 [ zero $end
$upscope $end
$upscope $end
$scope module RF $end
$var wire 1 ( clk $end
$var wire 4 U# readReg1 [3:0] $end
$var wire 4 V# readReg2 [3:0] $end
$var wire 4 W# readReg3 [3:0] $end
$var wire 4 X# readReg4 [3:0] $end
$var wire 1 / resetn $end
$var wire 1 4" write $end
$var wire 32 Y# writeData1 [31:0] $end
$var wire 32 Z# writeData2 [31:0] $end
$var wire 4 [# writeReg1 [3:0] $end
$var wire 4 \# writeReg2 [3:0] $end
$var parameter 32 ]# DATAWIDTH $end
$var reg 32 ^# readData1 [31:0] $end
$var reg 32 _# readData2 [31:0] $end
$var reg 32 `# readData3 [31:0] $end
$var reg 32 a# readData4 [31:0] $end
$var integer 32 b# i [31:0] $end
$upscope $end
$scope module ROM $end
$var wire 8 c# addr1 [7:0] $end
$var wire 8 d# addr2 [7:0] $end
$var wire 1 ( clk $end
$var parameter 32 e# DATAWIDTH $end
$var reg 32 f# dout1 [31:0] $end
$var reg 32 g# dout2 [31:0] $end
$upscope $end
$upscope $end
$scope task run_test $end
$var reg 32 h# in1 [31:0] $end
$var reg 32 i# in2 [31:0] $end
$upscope $end
$upscope $end
$enddefinitions $end
$comment Show the parameter values. $end
$dumpall
b100000 e#
b100000 ]#
b100000 R#
b1100 Q#
b101 P#
b0 O#
b10 N#
b11 M#
b1 L#
b1001 K#
b1010 J#
b1011 I#
b110 H#
b1000 G#
b100 F#
b100000 @#
b1100 ?#
b101 >#
b0 =#
b10 <#
b11 ;#
b1 :#
b1001 9#
b1010 8#
b1011 7#
b110 6#
b1000 5#
b100 4#
b100000 0#
b110 /#
b100 .#
b100000 &#
b1100 %#
b101 $#
b0 ##
b10 "#
b11 !#
b1 ~"
b1001 }"
b1010 |"
b1011 {"
b110 z"
b1000 y"
b100 x"
b100000 r"
b1100 q"
b101 p"
b0 o"
b10 n"
b11 m"
b1 l"
b1001 k"
b1010 j"
b1011 i"
b110 h"
b1000 g"
b100 f"
b100000 b"
b110 a"
b100 `"
b100000 X"
b1100 W"
b101 V"
b0 U"
b10 T"
b11 S"
b1 R"
b1001 Q"
b1010 P"
b1011 O"
b110 N"
b1000 M"
b100 L"
b100000 F"
b1100 E"
b101 D"
b0 C"
b10 B"
b11 A"
b1 @"
b1001 ?"
b1010 >"
b1011 ="
b110 <"
b1000 ;"
b100 :"
b100000 v
b10 u
b101 t
b100 s
b111 r
b1 q
b11 p
b110 o
b0 n
b10 m
b1 l
b100 k
b100000 '
b1010 &
$end
#0
$dumpvars
bx i#
bx h#
bx g#
bx f#
bz d#
b0 c#
b10000 b#
b0 a#
b0 `#
b0 _#
b0 ^#
bz \#
b0 [#
bz Z#
b0 Y#
b0 X#
b0 W#
b0 V#
b0 U#
b0 T#
b0 S#
b0 E#
b0 D#
b110 C#
b0 B#
b0 A#
b0 3#
b0 2#
b100 1#
b0 -#
b0 ,#
b0 +#
b0 *#
b0 )#
b0 (#
b0 '#
b0 w"
b0 v"
b110 u"
b0 t"
b0 s"
b0 e"
b0 d"
b100 c"
b0 _"
b0 ^"
b0 ]"
b0 \"
b0 ["
b0 Z"
b0 Y"
b0 K"
b0 J"
b0 I"
b0 H"
b0 G"
b0 9"
b0 8"
b0 7"
b111 6"
b0 5"
04"
b0 3"
b0 2"
b0 1"
b0 0"
b0 /"
b0 ."
b111 -"
b0 ,"
b0 +"
b0 *"
b0 )"
b0 ("
b0 '"
b0 &"
0%"
b0 $"
b0 #"
b0 ""
b0 !"
b0 ~
b0 }
b0 |
b0 {
b0 z
b0 y
b0 x
b0 w
b0 j
b0 i
0h
0g
1f
1e
0d
0c
b0 b
1a
1`
0_
0^
b0 ]
1\
1[
b0 Z
b0 Y
b0 X
b0 W
bx V
b0 U
b0 T
bx S
bx R
bx Q
bx P
bx O
bx N
bx M
bx L
bx K
xJ
xI
xH
xG
xF
xE
xD
xC
xB
bx A
bx @
bx ?
bx >
bx =
bx <
bx ;
bx :
bx 9
bx 8
bx 7
bx 6
bx 5
bx 4
bx 3
b0 2
b0 1
bx 0
0/
bx .
b1111111111111111111111111111111 -
b10000000000000000000000000000000 ,
b0 +
b0 *
0)
0(
b0 %
b111 $
0#
0"
b111 !
$end
#5000
b0 V
b0 f#
b10000 b#
1(
#10000
0(
#15000
b10000 b#
1(
#20000
0(
1/
#25000
1(
#30000
0(
#35000
1(
#40000
b10000 b#
0(
0/
b11111111111111111111110000001000 i#
b100100001 h#
b0 0
#45000
b10000 b#
1(
#50000
0(
#55000
b10000 b#
1(
#60000
0(
1/
#65000
1(
#70000
b1 ,"
0(
b11111111111111101010100000010100 .
0J
b1111111111111111111111111111111111111111111111101010100000010100 K
b10 N
0E
b1111111111111111111111111111111111111111111111111010101000000101 =
0D
b110101011011 <
0I
b1111111111111111111111111111111111111111111111111001110010101010 A
0H
b110101100000 @
b11111111111111111111111111111011 5
b1010 R
b1000 Q
0C
b1111111111111111111111111111111111111111111111111111011000010001 ;
0G
b1111111111111111111111111111111111111111111111111111011000010100 ?
0B
b110101100 :
0F
b110110000 >
b11111111111111111111111111111101 4
b101 P
b11111111111111111111111111111100 3
b110 O
b11111111111111111111111000000100 9
b1001000 8
b1 M
b10 L
b110000 S
b100100001 6
b11111111111111111111110000001000 7
1)
b11111111111111111111110000001000 +
b11111111111111111111110000001000 U
b100100001 *
b100100001 T
b1 2
#75000
0)
b1 5"
1(
#80000
0(
#85000
b100 $"
b100 c#
14"
1(
#90000
0(
#95000
b1000 $"
b1000 c#
b1 2"
b1 [#
1(
#100000
0(
#105000
b10 3"
b10 Y#
b1100 $"
b1100 c#
b10 2"
b10 [#
b10 V
b10 f#
1(
#110000
0(
#115000
b1 3"
b1 Y#
b10000 $"
b10000 c#
b11 2"
b11 [#
b1 V
b1 f#
1(
#120000
0(
#125000
b110 3"
b110 Y#
b10100 $"
b10100 c#
b100 2"
b100 [#
b110 V
b110 f#
1(
#130000
0(
#135000
b11111111111111111111111111111100 3"
b11111111111111111111111111111100 Y#
b11000 $"
b11000 c#
b101 2"
b101 [#
b11111111111111111111111111111100 V
b11111111111111111111111111111100 f#
1(
#140000
0(
#145000
b101 3"
b101 Y#
b11100 $"
b11100 c#
b110 2"
b110 [#
b101 V
b101 f#
1(
#150000
0(
#155000
b11111111111111111111111111111101 3"
b11111111111111111111111111111101 Y#
b100000 $"
b100000 c#
b111 2"
b111 [#
b11111111111111111111111111111101 V
b11111111111111111111111111111101 f#
1(
#160000
0(
#165000
b1000 3"
b1000 Y#
b100100 $"
b100100 c#
b1000 2"
b1000 [#
b1000 V
b1000 f#
1(
#170000
0(
#175000
b1010 3"
b1010 Y#
b101000 $"
b101000 c#
b1001 2"
b1001 [#
b1010 V
b1010 f#
1(
#180000
0(
#185000
b11111111111111111111111111111011 3"
b11111111111111111111111111111011 Y#
b101100 $"
b101100 c#
b1010 2"
b1010 [#
b11111111111111111111111111111011 V
b11111111111111111111111111111011 f#
1(
#190000
0(
#195000
b10 3"
b10 Y#
b110000 $"
b110000 c#
b1011 2"
b1011 [#
b10 V
b10 f#
1(
#200000
0(
#205000
b0 3"
b0 Y#
b110100 $"
b110100 c#
b1100 2"
b1100 [#
b0 V
b0 f#
1(
#210000
0(
#215000
b111000 $"
b111000 c#
b1101 2"
b1101 [#
1(
#220000
0(
#225000
b111100 $"
b111100 c#
b1110 2"
b1110 [#
1(
#230000
0(
#235000
b10 ,"
b1000000 $"
b1000000 c#
b1111 2"
b1111 [#
1(
#240000
0(
#245000
0e
b11111111111111111111111000000100 i
b11111111111111111111111000000100 Z"
0f
b1001000 j
b1001000 H"
b10 w
b10 7"
b10 I"
b1 {
b1 K"
b11111111111111111111110000001000 z
b11111111111111111111110000001000 J"
b10 y
b10 9"
b100100001 x
b100100001 8"
b11 ,"
b1 Y
b1 _#
b10 Z
b10 ^#
b10 5"
b11 /"
b11 V#
b10 ."
b10 U#
1%"
04"
1(
#250000
0(
#255000
0\
b11111111111111111111011000010001 ]
b11111111111111111111011000010001 ,#
b11111111111111111111011000010001 B#
b1111111111111111111111111111111111111111111111111111011000010001 A#
0[
b11111111111111111111011000010100 -#
b11111111111111111111011000010100 3#
b11111111111111111111011000010100 T#
b1111111111111111111111111111111111111111111111111111011000010100 S#
b11111111111111111111111111111101 +"
b11111111111111111111111111111101 +#
b11111111111111111111111111111101 2#
b101 *"
b101 *#
b101 E#
0a
b110101100 b
b110101100 ^"
b110101100 t"
b110101100 s"
0`
b110110000 _"
b110110000 e"
b110110000 (#
b110110000 '#
1e
b0 i
b0 Z"
1f
b0 j
b0 H"
b11111111111111111111111111111101 W
b11111111111111111111111111111101 a#
b101 X
b101 `#
b11111111111111111111111111111100 Y
b11111111111111111111111111111100 _#
b110 Z
b110 ^#
b11111111111111111111111000000100 )"
b11111111111111111111111000000100 )#
b11111111111111111111111000000100 D#
b11111111111111111111111111111100 ("
b11111111111111111111111111111100 ]"
b11111111111111111111111111111100 d"
b110 '"
b110 \"
b110 w"
b1001000 &"
b1001000 ["
b1001000 v"
b0 w
b0 7"
b0 I"
b0 {
b0 K"
b0 z
b0 J"
b0 y
b0 9"
b0 x
b0 8"
b100 ,"
b111 1"
b111 X#
b110 0"
b110 W#
b101 /"
b101 V#
b100 ."
b100 U#
b11111111111111111111111000000100 ~
b1001000 }
b11 5"
1(
#260000
0(
#265000
0f
b11111111111111111010101000000101 j
b11111111111111111010101000000101 H"
b1111111111111111111111111111111111111111111111111010101000000101 G"
b11111111111111111001110010100101 ]
b11111111111111111001110010100101 ,#
b11111111111111111001110010100101 B#
b1111111111111111111111111111111111111111111111111001110010100101 A#
b11111111111111111001110010101010 -#
b11111111111111111001110010101010 3#
b11111111111111111001110010101010 T#
b1111111111111111111111111111111111111111111111111001110010101010 S#
b110101100000 b
b110101100000 ^"
b110101100000 t"
b110101100000 s"
b110101100000 _"
b110101100000 e"
b110101100000 (#
b110101100000 '#
b101 ,"
b11111111111111111111111111111011 X
b11111111111111111111111111111011 `#
b1010 Y
b1010 _#
b1000 Z
b1000 ^#
b100 w
b100 7"
b100 I"
b11111111111111111001110010100101 y
b11111111111111111001110010100101 9"
b110101100000 x
b110101100000 8"
b11111111111111111111111111111011 +"
b11111111111111111111111111111011 +#
b11111111111111111111111111111011 2#
b1010 *"
b1010 *#
b1010 E#
b11111111111111111111011000010001 )"
b11111111111111111111011000010001 )#
b11111111111111111111011000010001 D#
b0 ("
b0 ]"
b0 d"
b1000 '"
b1000 \"
b1000 w"
b110101100 &"
b110101100 ["
b110101100 v"
b100 5"
b1010 0"
b1010 W#
b1001 /"
b1001 V#
b1000 ."
b1000 U#
b11111111111111111111011000010001 ""
b110101100 !"
1(
#270000
0(
#275000
1a
b0 b
b0 ^"
b0 t"
b0 s"
1\
b0 ]
b0 ,#
b0 B#
b0 A#
1[
b0 -#
b0 3#
b0 T#
b0 S#
1`
b0 _"
b0 e"
b0 (#
b0 '#
b11111111111111101010100000010100 j
b11111111111111101010100000010100 H"
b1111111111111111111111111111111111111111111111101010100000010100 G"
b10 Z
b10 ^#
b0 +"
b0 +#
b0 2#
b0 *"
b0 *#
b0 E#
b0 )"
b0 )#
b0 D#
b0 '"
b0 \"
b0 w"
b0 &"
b0 ["
b0 v"
b1 w
b1 7"
b1 I"
b10 y
b10 9"
b11111111111111111010101000000101 x
b11111111111111111010101000000101 8"
b110 ,"
b1011 ."
b1011 U#
b11111111111111111010101000000101 #"
b101 5"
1(
#280000
0(
#285000
1f
b0 j
b0 H"
b0 G"
b0 w
b0 7"
b0 I"
b0 y
b0 9"
b0 x
b0 8"
b0 ,"
b110 5"
b11111111111111101010100000010100 %
b11111111111111101010100000010100 |
1(
#290000
0(
#295000
b0 W
b0 a#
b0 X
b0 `#
b0 Y
b0 _#
b0 Z
b0 ^#
b0 2"
b0 [#
b0 1"
b0 X#
b0 0"
b0 W#
b0 /"
b0 V#
b0 ."
b0 U#
b0 #"
b0 ""
b0 !"
b0 ~
b0 }
b0 %
b0 |
b0 $"
b0 c#
0%"
b0 5"
b10000 b#
1(
0/
b1001100011111000001010110011000 i#
b1000001001000010011010110000001 h#
b1 1
#300000
0(
#305000
b10000 b#
1(
#310000
0(
#315000
1(
1/
#320000
0(
#325000
b1 5"
b1 ,"
1(
b11111111111111111111111111111111 .
1J
b1111111111111111111111111111111000010110101100100111011001010100 K
1E
b10000101101011001001110110010101 =
b1101100011101000000111011011 <
1I
b1111111111111111111111111111110101111000000111100001101110111010 A
1H
b1100001101100011101000000111100000 @
b1111111111111111111111111111111110111111001101100011010111111001 ;
1G
b10111111001101100011010111111100 ?
b1100001101100011101000000111100 :
b1100001101100011101000001000000 >
b100110001111100000101011001100 9
b10000010010000100110101100000 8
b110000 S
b1000001001000010011010110000001 6
b1001100011111000001010110011000 7
0)
b1001100011111000001010110011000 +
b1001100011111000001010110011000 U
b1000001001000010011010110000001 *
b1000001001000010011010110000001 T
b10 2
#330000
0(
#335000
b100 $"
b100 c#
14"
1(
#340000
0(
#345000
b1000 $"
b1000 c#
b1 2"
b1 [#
1(
#350000
0(
#355000
b10 3"
b10 Y#
b1100 $"
b1100 c#
b10 2"
b10 [#
b10 V
b10 f#
1(
#360000
0(
#365000
b1 3"
b1 Y#
b10000 $"
b10000 c#
b11 2"
b11 [#
b1 V
b1 f#
1(
#370000
0(
#375000
b110 3"
b110 Y#
b10100 $"
b10100 c#
b100 2"
b100 [#
b110 V
b110 f#
1(
#380000
0(
#385000
b11111111111111111111111111111100 3"
b11111111111111111111111111111100 Y#
b11000 $"
b11000 c#
b101 2"
b101 [#
b11111111111111111111111111111100 V
b11111111111111111111111111111100 f#
1(
#390000
0(
#395000
b101 3"
b101 Y#
b11100 $"
b11100 c#
b110 2"
b110 [#
b101 V
b101 f#
1(
#400000
0(
#405000
b11111111111111111111111111111101 3"
b11111111111111111111111111111101 Y#
b100000 $"
b100000 c#
b111 2"
b111 [#
b11111111111111111111111111111101 V
b11111111111111111111111111111101 f#
1(
#410000
0(
#415000
b1000 3"
b1000 Y#
b100100 $"
b100100 c#
b1000 2"
b1000 [#
b1000 V
b1000 f#
1(
#420000
0(
#425000
b1010 3"
b1010 Y#
b101000 $"
b101000 c#
b1001 2"
b1001 [#
b1010 V
b1010 f#
1(
#430000
0(
#435000
b11111111111111111111111111111011 3"
b11111111111111111111111111111011 Y#
b101100 $"
b101100 c#
b1010 2"
b1010 [#
b11111111111111111111111111111011 V
b11111111111111111111111111111011 f#
1(
#440000
0(
#445000
b10 3"
b10 Y#
b110000 $"
b110000 c#
b1011 2"
b1011 [#
b10 V
b10 f#
1(
#450000
0(
#455000
b0 3"
b0 Y#
b110100 $"
b110100 c#
b1100 2"
b1100 [#
b0 V
b0 f#
1(
#460000
0(
#465000
b111000 $"
b111000 c#
b1101 2"
b1101 [#
1(
#470000
0(
#475000
b111100 $"
b111100 c#
b1110 2"
b1110 [#
1(
#480000
0(
#485000
b10 ,"
b1000000 $"
b1000000 c#
b1111 2"
b1111 [#
1(
#490000
0(
#495000
b1 {
b1 K"
b10 y
b10 9"
0e
b100110001111100000101011001100 i
b100110001111100000101011001100 Z"
0f
b10000010010000100110101100000 j
b10000010010000100110101100000 H"
b1 Y
b1 _#
b10 Z
b10 ^#
b10 w
b10 7"
b10 I"
b1001100011111000001010110011000 z
b1001100011111000001010110011000 J"
b1000001001000010011010110000001 x
b1000001001000010011010110000001 8"
b11 ,"
b11 /"
b11 V#
b10 ."
b10 U#
1%"
04"
b10 5"
1(
#500000
0(
#505000
0\
b10111111001101100011010111111001 ]
b10111111001101100011010111111001 ,#
b10111111001101100011010111111001 B#
b1111111111111111111111111111111110111111001101100011010111111001 A#
0[
1^
b10111111001101100011010111111100 -#
b10111111001101100011010111111100 3#
b10111111001101100011010111111100 T#
b10111111001101100011010111111100 S#
b11111111111111111111111111111101 +"
b11111111111111111111111111111101 +#
b11111111111111111111111111111101 2#
b101 *"
b101 *#
b101 E#
0a
b1100001101100011101000000111100 b
b1100001101100011101000000111100 ^"
b1100001101100011101000000111100 t"
b1100001101100011101000000111100 s"
0`
b1100001101100011101000001000000 _"
b1100001101100011101000001000000 e"
b1100001101100011101000001000000 (#
b1100001101100011101000001000000 '#
1e
b0 i
b0 Z"
1f
b0 j
b0 H"
b100 ,"
b11111111111111111111111111111101 W
b11111111111111111111111111111101 a#
b101 X
b101 `#
b11111111111111111111111111111100 Y
b11111111111111111111111111111100 _#
b110 Z
b110 ^#
b100110001111100000101011001100 )"
b100110001111100000101011001100 )#
b100110001111100000101011001100 D#
b11111111111111111111111111111100 ("
b11111111111111111111111111111100 ]"
b11111111111111111111111111111100 d"
b110 '"
b110 \"
b110 w"
b10000010010000100110101100000 &"
b10000010010000100110101100000 ["
b10000010010000100110101100000 v"
b0 w
b0 7"
b0 I"
b0 {
b0 K"
b0 z
b0 J"
b0 y
b0 9"
b0 x
b0 8"
b11 5"
b111 1"
b111 X#
b110 0"
b110 W#
b101 /"
b101 V#
b100 ."
b100 U#
b100110001111100000101011001100 ~
b10000010010000100110101100000 }
1(
#510000
0(
#515000
0f
b101 j
b101 H"
b101 G"
b101 ]
b101 ,#
b101 B#
b101 A#
1[
b0 -#
b0 3#
b0 T#
b0 S#
0^
1a
b0 b
b0 ^"
b0 t"
b0 s"
1`
b0 _"
b0 e"
b0 (#
b0 '#
b100 w
b100 7"
b100 I"
b101 y
b101 9"
b0 x
b0 8"
b101 +"
b101 +#
b101 2#
b11111111111111111111111111111100 *"
b11111111111111111111111111111100 *#
b11111111111111111111111111111100 E#
b0 )"
b0 )#
b0 D#
b0 ("
b0 ]"
b0 d"
b110 '"
b110 \"
b110 w"
b0 &"
b0 ["
b0 v"
b101 ,"
b11 $
b11 -"
1#
b100 5"
1(
#520000
0(
#525000
1\
b0 ]
b0 ,#
b0 B#
b0 A#
b10100 j
b10100 H"
b10100 G"
b110 ,"
b10 Z
b10 ^#
b101 x
b101 8"
b0 +"
b0 +#
b0 2#
b0 *"
b0 *#
b0 E#
b0 '"
b0 \"
b0 w"
b1 w
b1 7"
b1 I"
b10 y
b10 9"
b101 5"
b1011 ."
b1011 U#
b101 #"
b100 !
b100 6"
1"
1(
#530000
0(
#535000
1f
b0 j
b0 H"
b0 G"
b0 w
b0 7"
b0 I"
b0 y
b0 9"
b0 x
b0 8"
b0 ,"
b11111111111111111111111111111111 %
b11111111111111111111111111111111 |
b101 $
b101 -"
b110 5"
1(
#540000
0(
